{
    "transitions": [
        {
            "name": "In Progress",
            "to": {
                "name": "In Progress"
            }
        },
        {
            "name": "To Do",
            "to": {
                "name": "To Do"
            }
        }
    ]
}